%YAML 1.1
%TAG !u! tag:unity3d.com,2011:
--- !u!1045 &1
EditorBuildSettings:
  m_ObjectHideFlags: 0
  serializedVersion: 2
  m_Scenes:
  - enabled: 1
    path: Assets/Weather/Scene/main.unity
    guid: 6826832cde8d9864f8f05ed8d1fd267c
  m_configObjects: {}
